{
  "name": "Kernel Indicator",
  "uuid": "kernel-indicator@elboulangero.gitlab.com",
  "description": "Display the kernel version in the top bar",
  "shell-version": [ "3.36", "40", "41", "42", "43", "44", "45" ],
  "url": "https://gitlab.com/elboulangero/gnome-shell-extension-kernel-indicator"
}
